^C:\USERS\F0X\SOURCE\REPOS\FXENGINE\FX\RELEASE\FX.OBJ|C:\USERS\F0X\SOURCE\REPOS\FXENGINE\FX\RELEASE\FX.RES
C:\USERS\F0X\SOURCE\REPOS\FXENGINE\RELEASE\FX.EXE
C:\USERS\F0X\SOURCE\REPOS\FXENGINE\FX\RELEASE\FX.IPDB
C:\USERS\F0X\SOURCE\REPOS\FXENGINE\FX\RELEASE\FX.IOBJ
