^C:\USERS\F0X\SOURCE\REPOS\FXENGINE\FX\DEBUG\FX.OBJ|C:\USERS\F0X\SOURCE\REPOS\FXENGINE\FX\DEBUG\FX.RES
/OUT:"C:\USERS\F0X\SOURCE\REPOS\FXENGINE\DEBUG\FX.EXE" /INCREMENTAL /NOLOGO D3D10.LIB D3D11.LIB D3DCOMPILER.LIB DXGUID.LIB WINMM.LIB XAUDIO2.LIB KERNEL32.LIB USER32.LIB GDI32.LIB WINSPOOL.LIB COMDLG32.LIB ADVAPI32.LIB SHELL32.LIB OLE32.LIB OLEAUT32.LIB UUID.LIB ODBC32.LIB ODBCCP32.LIB /MANIFEST /MANIFESTUAC:"level='asInvoker' uiAccess='false'" /manifest:embed /DEBUG:FASTLINK /PDB:"C:\USERS\F0X\SOURCE\REPOS\FXENGINE\DEBUG\FX.PDB" /SUBSYSTEM:WINDOWS /TLBID:1 /DYNAMICBASE /NXCOMPAT /IMPLIB:"C:\USERS\F0X\SOURCE\REPOS\FXENGINE\DEBUG\FX.LIB" /MACHINE:X86 DEBUG\FX.RES
DEBUG\FX.OBJ
